[{
  "relation": ["delegate_permission/common.handle_all_urls"],
  "target": {
    "namespace": "android_app",
    "package_name": "com.cpk.development.store",
    "sha256_cert_fingerprints":
    ["84:2E:A0:4F:6E:66:92:AE:65:D8:02:A6:F4:96:66:15:A4:8F:5C:65:ED:CF:80:86:FD:5B:BA:E5:1A:2F:F9:FB"]
  }
}]